{
  "code": "200",
  "data": {
    "pagination": {
      "page": 1,
      "size": 10,
      "totalPage": 554,
      "total": 5531
    },
    "result": [
      {
        "skuInfo": [
          "枯茶褐",
          "1.8M"
        ],
        "frontUserName": "",
        "content": "有图有图炒鸡喜欢，包装也很好，会继续关注。",
        "createTime": 1517234855433,
        "picList": [
          "https://yanxuan.nosdn.127.net/da74af8dba5e484068efd1f156a678ef.jpg",
          "https://yanxuan.nosdn.127.net/c5fb323f4df0f9d54c8bc25fabec4443.jpg"
        ],
        "frontUserAvatar": "http://yanxuan.nosdn.127.net/4aa8d88c28d9445e893fbc3604a966a0",
        "commentReplyVO": {
          "id": 20090997,
          "replyContent": "您的肯定就是对我们最大的支持和鼓励。我们时刻会记得您对严选的支持，希望您也记得有一个期待者在时刻期待您的再次光临哦！",
          "createTime": "2018-01-30 17:37:42"
        },
        "memberLevel": 1,
        "appendCommentVO": null,
        "star": 5,
        "itemId": 1110007
      },
      {
        "skuInfo": [
          "枯茶褐",
          "1.8M"
        ],
        "frontUserName": "灰****叔",
        "content": "有图有图好的好的好的好的好的好的好的好的好的好的好的好的",
        "createTime": 1514969064013,
        "picList": [
          "https://yanxuan.nosdn.127.net/99254a8701b2eb5140954ba2f62fdeba.jpg",
          "https://yanxuan.nosdn.127.net/d0c862fa48f6c0b3fe81fea258bffefb.jpg"
        ],
        "frontUserAvatar": "http://q.qlogo.cn/qqapp/1104949895/0F07C6D175DDFE043975E18321AE3456/100",
        "commentReplyVO": {
          "id": 200903224,
          "replyContent": "我们的进步来自于您的监督，非常感谢",
          "createTime": "2018-01-23 17:46:31"
        },
        "memberLevel": 1,
        "appendCommentVO": null,
        "star": 5,
        "itemId": 1110007
      },
      {
        "skuInfo": [
          "枯茶褐",
          "1.8M"
        ],
        "frontUserName": "w****3",
        "content": "追评追评 买给老人用的，全棉款摸着舒服，严选的东西就是好，质优价廉，床品都在这里一站式购了",
        "createTime": 1515511566670,
        "picList": [
          "https://yanxuan.nosdn.127.net/f0842f16973fce77bc4ebaeab42821bf.jpg"
        ],
        "frontUserAvatar": null,
        "commentReplyVO": {
          "id": 20090124,
          "replyContent": "非常感谢您",
          "createTime": "2018-01-23 17:46:31"
        },
        "memberLevel": 2,
        "appendCommentVO": null,
        "star": 5,
        "itemId": 1110007
      },
      {
        "skuInfo": [
          "石竹咖",
          "1.5M"
        ],
        "frontUserName": "李****i",
        "content": "追评追评 非常迅速，昨晚秒杀，今天就到了，质感非常棒，只是家里刚换了床单，后续再试",
        "createTime": 1517130089268,
        "picList": [
          "https://yanxuan.nosdn.127.net/6697ff5b2286eafcd3137eb3a80c5b4c.jpg"
        ],
        "frontUserAvatar": "//wx3.sinaimg.cn/mw690/c0710f2bly1fo1691skqyj23vc2kwe82.jpg",
        "commentReplyVO": null,
        "memberLevel": 2,
        "appendCommentVO": null,
        "star": 5,
        "itemId": 1110007
      },
      {
        "skuInfo": [
          "枯茶褐",
          "1.8M"
        ],
        "frontUserName": "飞****妈",
        "content": "质量上乘质量上乘 一口气买了四套，1.5和1.8各两套，这个颜色类似黑白格，适合夏天铺盖的床品，很清新",
        "createTime": 1513569370382,
        "picList": [
          "https://yanxuan.nosdn.127.net/1ccf34d91f72c96527da8dbf8363917e.jpg",
          "https://yanxuan.nosdn.127.net/5a611aa717cd5bfe7af3873b3d368983.jpg",
          "https://yanxuan.nosdn.127.net/349a640da33c494532d2cbf685470f95.jpg",
          "https://yanxuan.nosdn.127.net/9a0daec58c6146f4db909a55c7a45065.jpg"
        ],
        "frontUserAvatar": "https://yanxuan.nosdn.127.net/c12594e933835c8b9af3b270e5fdcdd4.jpg",
        "commentReplyVO": null,
        "memberLevel": 3,
        "appendCommentVO": null,
        "star": 5,
        "itemId": 1110007
      },
      {
        "skuInfo": [
          "茶香粉",
          "1.2M(三件套床单款)"
        ],
        "frontUserName": "l****",
        "content": "质量上乘质量上乘 非常好看粉嫩嫩的，超级喜欢。\n那个灰色的床单是灰色就好了，白色不耐脏。",
        "createTime": 1515673053219,
        "picList": [
          "https://yanxuan.nosdn.127.net/01759414b9dcfb91f82109ac955e7706.jpg"
        ],
        "frontUserAvatar": "http://yanxuan.nosdn.127.net/d2a8424f0eb04d8cb91d573a88c5e2e7",
        "commentReplyVO": null,
        "memberLevel": 3,
        "appendCommentVO": null,
        "star": 5,
        "itemId": 1110007
      },
      {
        "skuInfo": [
          "枯茶褐",
          "1.5M"
        ],
        "frontUserName": "q****8",
        "content": "很舒服很舒服 你想像的薄，适合夏天用，有床单款就好了，依然喜欢。严选买的第三套四件套了",
        "createTime": 1515594439454,
        "picList": [
          "https://yanxuan.nosdn.127.net/e7cb6acf29de74f685b20f52e75c5cc4.jpg"
        ],
        "frontUserAvatar": "//wx2.sinaimg.cn/thumb180/761da4c2ly1fo16a1mtgcj20ku0pfwia.jpg",
        "commentReplyVO": {
          "id": 200903224,
          "replyContent": "您的肯定就是对我们最大的支持和鼓励。",
          "createTime": "2018-01-23 17:46:31"
        },
        "memberLevel": 4,
        "appendCommentVO": null,
        "star": 5,
        "itemId": 1110007
      },
      {
        "skuInfo": [
          "茶香粉",
          "1.8M"
        ],
        "frontUserName": "m****1",
        "content": "很舒服很舒服 这是这几天在严选买的第三套床品，很喜欢严选的东西，刚刚又买了些别的小零碎",
        "createTime": 1513053020006,
        "picList": [
          "https://yanxuan.nosdn.127.net/338d4ef52ce98f566310c398a7afc922.jpg"
        ],
        "frontUserAvatar": "//wx3.sinaimg.cn/thumb180/006m0SA8ly1fo16c0qkoxj30g40g4gmu.jpg",
        "commentReplyVO": null,
        "memberLevel": 4,
        "appendCommentVO": null,
        "star": 5,
        "itemId": 1110007
      },
      {
        "skuInfo": [
          "茶香粉",
          "1.2M(三件套床单款)"
        ],
        "frontUserName": "胡****猫",
        "content": "漂亮精致漂亮精致 看着就很暖和了啊！\n之前是冷色调的，特意买了格子的，就等拆洗后使用啦",
        "createTime": 1512610944637,
        "picList": [
          "https://yanxuan.nosdn.127.net/2f96de4a9c5318fd13543a2a4b37e24c.jpg"
        ],
        "frontUserAvatar": "https://yanxuan.nosdn.127.net/e9db7d9f035630b3adbf86b65eccc73e.jpg",
        "commentReplyVO": {
          "id": 200903224,
          "replyContent": "您的肯定就是对我们最大的支持和鼓励。我们时刻会记得您对严选的支持，希望您也记得有一个期待者在时刻期待您的再次光临哦！",
          "createTime": "2018-01-23 17:46:31"
        },
        "memberLevel": 5,
        "appendCommentVO": null,
        "star": 5,
        "itemId": 1110007
      },
      {
        "skuInfo": [
          "灰白",
          "1.2M(三件套床单款)"
        ],
        "frontUserName": "g****e",
        "content": "漂亮精致漂亮精致 小灰格子，柔柔的顏色，男女都可用，小蝴蝶結讓人感覺每次都收到了心愛的禮物",
        "createTime": 1515765372223,
        "picList": [
          "https://yanxuan.nosdn.127.net/58ecef413efe7a014d340b060a7b75fd.jpg"
        ],
        "frontUserAvatar": "http://q.qlogo.cn/qqapp/1104949895/0F07C6D175DDFE043975E18321AE3456/100",
        "commentReplyVO": null,
        "memberLevel": 5,
        "appendCommentVO": null,
        "star": 5,
        "itemId": 1110007
      },
      {
        "skuInfo": [
          "枯茶褐",
          "1.8M"
        ],
        "frontUserName": "",
        "content": "性价比高性价比高 炒鸡喜欢，包装也很好，会继续关注。",
        "createTime": 1517234855433,
        "picList": [
          "https://yanxuan.nosdn.127.net/da74af8dba5e484068efd1f156a678ef.jpg",
          "https://yanxuan.nosdn.127.net/c5fb323f4df0f9d54c8bc25fabec4443.jpg"
        ],
        "frontUserAvatar": "http://yanxuan.nosdn.127.net/4aa8d88c28d9445e893fbc3604a966a0",
        "commentReplyVO": {
          "id": 20090997,
          "replyContent": "您的肯定就是对我们最大的支持和鼓励。我们时刻会记得您对严选的支持，希望您也记得有一个期待者在时刻期待您的再次光临哦！",
          "createTime": "2018-01-30 17:37:42"
        },
        "memberLevel": 6,
        "appendCommentVO": null,
        "star": 5,
        "itemId": 1110007
      },
      {
        "skuInfo": [
          "枯茶褐",
          "1.8M"
        ],
        "frontUserName": "灰****叔",
        "content": "性价比高性价比高 好的好的好的好的好的好的好的好的好的好的好的好的",
        "createTime": 1514969064013,
        "picList": [
          "https://yanxuan.nosdn.127.net/99254a8701b2eb5140954ba2f62fdeba.jpg",
          "https://yanxuan.nosdn.127.net/d0c862fa48f6c0b3fe81fea258bffefb.jpg"
        ],
        "frontUserAvatar": "http://q.qlogo.cn/qqapp/1104949895/0F07C6D175DDFE043975E18321AE3456/100",
        "commentReplyVO": {
          "id": 200903224,
          "replyContent": "我们的进步来自于您的监督，非常感谢",
          "createTime": "2018-01-23 17:46:31"
        },
        "memberLevel": 6,
        "appendCommentVO": null,
        "star": 5,
        "itemId": 1110007
      },
      {
        "skuInfo": [
          "枯茶褐",
          "1.8M"
        ],
        "frontUserName": "w****3",
        "content": "手感好手感好 买给老人用的，全棉款摸着舒服，严选的东西就是好，质优价廉，床品都在这里一站式购了",
        "createTime": 1515511566670,
        "picList": [
          "https://yanxuan.nosdn.127.net/f0842f16973fce77bc4ebaeab42821bf.jpg"
        ],
        "frontUserAvatar": null,
        "commentReplyVO": {
          "id": 20090124,
          "replyContent": "非常感谢您",
          "createTime": "2018-01-23 17:46:31"
        },
        "memberLevel": 7,
        "appendCommentVO": null,
        "star": 5,
        "itemId": 1110007
      },
      {
        "skuInfo": [
          "石竹咖",
          "1.5M"
        ],
        "frontUserName": "李****i",
        "content": "手感好手感好 非常迅速，昨晚秒杀，今天就到了，质感非常棒，只是家里刚换了床单，后续再试",
        "createTime": 1517130089268,
        "picList": [
          "https://yanxuan.nosdn.127.net/6697ff5b2286eafcd3137eb3a80c5b4c.jpg"
        ],
        "frontUserAvatar": "//wx3.sinaimg.cn/mw690/c0710f2bly1fo1691skqyj23vc2kwe82.jpg",
        "commentReplyVO": null,
        "memberLevel": 7,
        "appendCommentVO": null,
        "star": 5,
        "itemId": 1110007
      },
      {
        "skuInfo": [
          "枯茶褐",
          "1.8M"
        ],
        "frontUserName": "飞****妈",
        "content": "颜色好看颜色好看 一口气买了四套，1.5和1.8各两套，这个颜色类似黑白格，适合夏天铺盖的床品，很清新",
        "createTime": 1513569370382,
        "picList": [
          "https://yanxuan.nosdn.127.net/1ccf34d91f72c96527da8dbf8363917e.jpg",
          "https://yanxuan.nosdn.127.net/5a611aa717cd5bfe7af3873b3d368983.jpg",
          "https://yanxuan.nosdn.127.net/349a640da33c494532d2cbf685470f95.jpg",
          "https://yanxuan.nosdn.127.net/9a0daec58c6146f4db909a55c7a45065.jpg"
        ],
        "frontUserAvatar": "https://yanxuan.nosdn.127.net/c12594e933835c8b9af3b270e5fdcdd4.jpg",
        "commentReplyVO": null,
        "memberLevel": 8,
        "appendCommentVO": null,
        "star": 5,
        "itemId": 1110007
      },
      {
        "skuInfo": [
          "茶香粉",
          "1.2M(三件套床单款)"
        ],
        "frontUserName": "l****",
        "content": "颜色好看颜色好看 非常好看粉嫩嫩的，超级喜欢。\n那个灰色的床单是灰色就好了，白色不耐脏。",
        "createTime": 1515673053219,
        "picList": [
          "https://yanxuan.nosdn.127.net/01759414b9dcfb91f82109ac955e7706.jpg"
        ],
        "frontUserAvatar": "http://yanxuan.nosdn.127.net/d2a8424f0eb04d8cb91d573a88c5e2e7",
        "commentReplyVO": null,
        "memberLevel": 8,
        "appendCommentVO": null,
        "star": 5,
        "itemId": 1110007
      },
      {
        "skuInfo": [
          "枯茶褐",
          "1.5M"
        ],
        "frontUserName": "q****8",
        "content": "有效实用有效实用 你想像的薄，适合夏天用，有床单款就好了，依然喜欢。严选买的第三套四件套了",
        "createTime": 1515594439454,
        "picList": [
          "https://yanxuan.nosdn.127.net/e7cb6acf29de74f685b20f52e75c5cc4.jpg"
        ],
        "frontUserAvatar": "//wx2.sinaimg.cn/thumb180/761da4c2ly1fo16a1mtgcj20ku0pfwia.jpg",
        "commentReplyVO": {
          "id": 200903224,
          "replyContent": "您的肯定就是对我们最大的支持和鼓励。",
          "createTime": "2018-01-23 17:46:31"
        },
        "memberLevel": 9,
        "appendCommentVO": null,
        "star": 5,
        "itemId": 1110007
      },
      {
        "skuInfo": [
          "茶香粉",
          "1.8M"
        ],
        "frontUserName": "m****1",
        "content": "有效实用有效实用 这是这几天在严选买的第三套床品，很喜欢严选的东西，刚刚又买了些别的小零碎",
        "createTime": 1513053020006,
        "picList": [
          "https://yanxuan.nosdn.127.net/338d4ef52ce98f566310c398a7afc922.jpg"
        ],
        "frontUserAvatar": "//wx3.sinaimg.cn/thumb180/006m0SA8ly1fo16c0qkoxj30g40g4gmu.jpg",
        "commentReplyVO": null,
        "memberLevel": 9,
        "appendCommentVO": null,
        "star": 5,
        "itemId": 1110007
      },
      {
        "skuInfo": [
          "茶香粉",
          "1.2M(三件套床单款)"
        ],
        "frontUserName": "胡****猫",
        "content": "有效实用有效实用 看着就很暖和了啊！\n之前是冷色调的，特意买了格子的，就等拆洗后使用啦",
        "createTime": 1512610944637,
        "picList": [
          "https://yanxuan.nosdn.127.net/2f96de4a9c5318fd13543a2a4b37e24c.jpg"
        ],
        "frontUserAvatar": "https://yanxuan.nosdn.127.net/e9db7d9f035630b3adbf86b65eccc73e.jpg",
        "commentReplyVO": {
          "id": 200903224,
          "replyContent": "您的肯定就是对我们最大的支持和鼓励。我们时刻会记得您对严选的支持，希望您也记得有一个期待者在时刻期待您的再次光临哦！",
          "createTime": "2018-01-23 17:46:31"
        },
        "memberLevel": 9,
        "appendCommentVO": null,
        "star": 5,
        "itemId": 1110007
      },
      {
        "skuInfo": [
          "灰白",
          "1.2M(三件套床单款)"
        ],
        "frontUserName": "g****e",
        "content": "很舒服很舒服 小灰格子，柔柔的顏色，男女都可用，小蝴蝶結讓人感覺每次都收到了心愛的禮物",
        "createTime": 1515765372223,
        "picList": [
          "https://yanxuan.nosdn.127.net/58ecef413efe7a014d340b060a7b75fd.jpg"
        ],
        "frontUserAvatar": "http://q.qlogo.cn/qqapp/1104949895/0F07C6D175DDFE043975E18321AE3456/100",
        "commentReplyVO": null,
        "memberLevel": 4,
        "appendCommentVO": null,
        "star": 5,
        "itemId": 1110007
      },
      {
        "skuInfo": [
          "枯茶褐",
          "1.8M"
        ],
        "frontUserName": "",
        "content": "有图有图 炒鸡喜欢，包装也很好，会继续关注。",
        "createTime": 1517234855433,
        "picList": [
          "https://yanxuan.nosdn.127.net/da74af8dba5e484068efd1f156a678ef.jpg",
          "https://yanxuan.nosdn.127.net/c5fb323f4df0f9d54c8bc25fabec4443.jpg"
        ],
        "frontUserAvatar": "http://yanxuan.nosdn.127.net/4aa8d88c28d9445e893fbc3604a966a0",
        "commentReplyVO": {
          "id": 20090997,
          "replyContent": "您的肯定就是对我们最大的支持和鼓励。我们时刻会记得您对严选的支持，希望您也记得有一个期待者在时刻期待您的再次光临哦！",
          "createTime": "2018-01-30 17:37:42"
        },
        "memberLevel": 1,
        "appendCommentVO": null,
        "star": 5,
        "itemId": 1110007
      },
      {
        "skuInfo": [
          "枯茶褐",
          "1.8M"
        ],
        "frontUserName": "灰****叔",
        "content": "追评追评 好的好的好的好的好的好的好的好的好的好的好的好的",
        "createTime": 1514969064013,
        "picList": [
          "https://yanxuan.nosdn.127.net/99254a8701b2eb5140954ba2f62fdeba.jpg",
          "https://yanxuan.nosdn.127.net/d0c862fa48f6c0b3fe81fea258bffefb.jpg"
        ],
        "frontUserAvatar": "http://q.qlogo.cn/qqapp/1104949895/0F07C6D175DDFE043975E18321AE3456/100",
        "commentReplyVO": {
          "id": 200903224,
          "replyContent": "我们的进步来自于您的监督，非常感谢",
          "createTime": "2018-01-23 17:46:31"
        },
        "memberLevel": 2,
        "appendCommentVO": null,
        "star": 5,
        "itemId": 1110007
      },
      {
        "skuInfo": [
          "枯茶褐",
          "1.8M"
        ],
        "frontUserName": "w****3",
        "content": "手感好手感好 买给老人用的，全棉款摸着舒服，严选的东西就是好，质优价廉，床品都在这里一站式购了",
        "createTime": 1515511566670,
        "picList": [
          "https://yanxuan.nosdn.127.net/f0842f16973fce77bc4ebaeab42821bf.jpg"
        ],
        "frontUserAvatar": null,
        "commentReplyVO": {
          "id": 20090124,
          "replyContent": "非常感谢您",
          "createTime": "2018-01-23 17:46:31"
        },
        "memberLevel": 7,
        "appendCommentVO": null,
        "star": 5,
        "itemId": 1110007
      },
      {
        "skuInfo": [
          "石竹咖",
          "1.5M"
        ],
        "frontUserName": "李****i",
        "content": "质量上乘质量上乘 非常迅速，昨晚秒杀，今天就到了，质感非常棒，只是家里刚换了床单，后续再试",
        "createTime": 1517130089268,
        "picList": [
          "https://yanxuan.nosdn.127.net/6697ff5b2286eafcd3137eb3a80c5b4c.jpg"
        ],
        "frontUserAvatar": "//wx3.sinaimg.cn/mw690/c0710f2bly1fo1691skqyj23vc2kwe82.jpg",
        "commentReplyVO": null,
        "memberLevel": 3,
        "appendCommentVO": null,
        "star": 5,
        "itemId": 1110007
      },
      {
        "skuInfo": [
          "枯茶褐",
          "1.8M"
        ],
        "frontUserName": "飞****妈",
        "content": "质感好质感好 一口气买了四套，1.5和1.8各两套，这个颜色类似黑白格，适合夏天铺盖的床品，很清新",
        "createTime": 1513569370382,
        "picList": [
          "https://yanxuan.nosdn.127.net/1ccf34d91f72c96527da8dbf8363917e.jpg",
          "https://yanxuan.nosdn.127.net/5a611aa717cd5bfe7af3873b3d368983.jpg",
          "https://yanxuan.nosdn.127.net/349a640da33c494532d2cbf685470f95.jpg",
          "https://yanxuan.nosdn.127.net/9a0daec58c6146f4db909a55c7a45065.jpg"
        ],
        "frontUserAvatar": "https://yanxuan.nosdn.127.net/c12594e933835c8b9af3b270e5fdcdd4.jpg",
        "commentReplyVO": null,
        "memberLevel": 10,
        "appendCommentVO": null,
        "star": 5,
        "itemId": 1110007
      }

    ]
  }
}